{
    "$schema": "https://docs.renovatebot.com/renovate-schema.json",
    "extends": [
        "config:base",
        ":disableDependencyDashboard"
    ],
    "assignees": [
        "mkjmdski"
    ],
    "platform": "gitlab"
}